<?xml version="1.0" encoding="utf-8"?>
<!-- Generator: Adobe Illustrator 22.1.0, SVG Export Plug-In . SVG Version: 6.00 Build 0)  -->
<svg version="1.1" id="Calque_1" xmlns="http://www.w3.org/2000/svg" xmlns:xlink="http://www.w3.org/1999/xlink" x="0px" y="0px"
	 viewBox="0 0 39.5 39.5" enable-background="new 0 0 39.5 39.5" xml:space="preserve">
<path fill="#999998" d="M19.75,0.25c10.742,0,19.5,8.758,19.5,19.5s-8.758,19.5-19.5,19.5s-19.5-8.758-19.5-19.5
	S9.01,0.25,19.75,0.25"/>
<path fill="#111111" d="M19.75,1.35c10.136,0,18.4,8.264,18.4,18.4s-8.264,18.4-18.4,18.4s-18.4-8.264-18.4-18.4
	S9.615,1.35,19.75,1.35"/>
<g>
	<path fill="#E4E3E3" d="M29.757,15.224H9.743c-0.266,0-0.484-0.218-0.484-0.484v-0.646c0-0.266,0.218-0.484,0.484-0.484h20.014
		c0.266,0,0.484,0.218,0.484,0.484v0.646C30.241,15.006,30.023,15.224,29.757,15.224z"/>
	<path fill="#E4E3E3" d="M29.757,25.877H9.743c-0.266,0-0.484-0.218-0.484-0.484v-0.646c0-0.266,0.218-0.484,0.484-0.484h20.014
		c0.266,0,0.484,0.218,0.484,0.484v0.646C30.241,25.659,30.023,25.877,29.757,25.877z"/>
	<path fill="#E4E3E3" d="M29.757,20.551H9.743c-0.266,0-0.484-0.218-0.484-0.484v-0.646c0-0.266,0.218-0.484,0.484-0.484h20.014
		c0.266,0,0.484,0.218,0.484,0.484v0.646C30.241,20.333,30.023,20.551,29.757,20.551z"/>
</g>
<rect fill="none" width="39.5" height="39.5"/>
</svg>
