<?xml version="1.0" encoding="utf-8"?>
<!-- Generator: Adobe Illustrator 22.1.0, SVG Export Plug-In . SVG Version: 6.00 Build 0)  -->
<svg version="1.1" id="Calque_1" xmlns="http://www.w3.org/2000/svg" xmlns:xlink="http://www.w3.org/1999/xlink" x="0px" y="0px"
	 viewBox="0 0 38.1 38.1" enable-background="new 0 0 38.1 38.1" xml:space="preserve">
<path fill="#999998" d="M35.238,12.267h-7.015h-1.252c-0.954-0.018-1.165-0.323-1.139-1.139v-0.37V2.866
	c0.001-1.549-1.636-2.816-2.615-2.816h-8.33c-1.019,0-2.616,1.267-2.616,2.816v7.893v0.37c0.003,0.853-0.309,1.139-1.139,1.139
	H9.881H2.866c-1.549-0.001-2.816,1.474-2.816,2.615v8.33c0,1.091,1.267,2.616,2.816,2.616h7.015h1.252
	c0.907,0,1.139,0.262,1.139,1.139v0.37v7.897c0,1.549,1.566,2.816,2.616,2.816h8.33c1.135,0,2.616-1.267,2.616-2.816v-7.897v-0.37
	c0-0.893,0.285-1.139,1.139-1.139h1.252h7.015c1.549,0,2.816-1.504,2.816-2.616v-8.33C38.054,13.731,36.787,12.267,35.238,12.267z"
	/>
<path fill="#111111" d="M34.971,12.899h-7.839H26.03c-0.455,0-0.827-0.372-0.827-0.827v-0.326V3.131
	c0-1.364-1.116-2.481-2.481-2.481h-7.339c-1.364,0-2.481,1.116-2.481,2.481v8.616v0.326c0,0.455-0.372,0.827-0.827,0.827h-1.103
	H3.133c-1.364,0-2.481,1.116-2.481,2.481v7.339c0,1.365,1.116,2.481,2.481,2.481h7.839h1.103c0.455,0,0.827,0.372,0.827,0.827v0.326
	v8.616c0,1.365,1.116,2.481,2.481,2.481h7.339c1.364,0,2.481-1.116,2.481-2.481v-8.616v-0.326c0-0.455,0.372-0.827,0.827-0.827
	h1.103h7.839c1.364,0,2.481-1.116,2.481-2.481v-7.34C37.452,14.016,36.336,12.899,34.971,12.899z"/>
<g id="Bas">
	<g>
		<polygon fill="#E5E4E3" points="16.183,29.768 19.229,35.032 22.264,29.761 		"/>
	</g>
</g>
<g id="Haut">
	<g>
		<polygon fill="#E5E4E3" points="19.229,3.067 16.183,8.331 22.264,8.338 		"/>
	</g>
</g>
<rect fill="none" width="38.1" height="38.1"/>
</svg>
